5 The pipe: %>% and |> – Reproducible Data Processing and Visualization
…
[1] TRUE

5.3 Which argument is the input set to?

Which argument does the pipe feed the input to? The {dplyr} pipe, originally called the {magrittr} pipe (%>%) is relatively intelligent, and tries to supply the input as the most suitable argument. If the function takes the .data argument, it will be used as that. Failing that, it is used as the first argument.

Because {tidyverse} packages, and many others, are written with the pipe in mind, many work natively with the pipe. If a function doesn’t work natively with the pipe - that is, if the function doesn’t accept the pipe’s input as the correct argument and throws an error - you can specify it manually as “.”:

Code

data_demographics_raw %>%
  janitor::clean_names(dat = .)

# A tibble: 200 × 17
   date       time       group subject session build blocknum trialnum blockcode
   <date>     <time>     <dbl>   <dbl>   <dbl> <chr>    <dbl>    <dbl> <chr>    
 1 2022-06-23 10:46:30  8.66e8  5.49e8       1 6.6.0        1        2 demograp…
 2 2022-06-23 10:46:30  8.66e8  5.49e8       1 6.6.0        1        3 demograp…
 3 2022-06-23 11:54:55  6.31e8  5.05e8       1 6.6.0        1        2 demograp…
 4 2022-06-23 11:54:55  6.31e8  5.05e8       1 6.6.0        1        3 demograp…
 5 2022-06-23 12:23:32  5.69e8  9.95e8       1 6.6.0        1        2 demograp…
 6 2022-06-23 12:23:32  5.69e8  9.95e8       1 6.6.0        1        3 demograp…
 7 2022-06-23 12:27:58  3.19e8  2.47e8       1 6.6.0        1        2 demograp…
 8 2022-06-23 12:27:58  3.19e8  2.47e8       1 6.6.0        1        3 demograp…
 9 2022-06-23 12:32:30  3.19e8  2.47e8       1 6.6.0        1        2 demograp…
10 2022-06-23 12:32:30  3.19e8  2.47e8       1 6.6.0        1        3 demograp…
# ℹ 190 more rows
# ℹ 8 more variables: trialcode <chr>, pretrialpause <dbl>,
#   posttrialpause <dbl>, trialduration <dbl>, trialtimeout <dbl>,
#   response <chr>, correct <dbl>, latency <dbl>

The base R pipe (|>) is less intelligent behind the scenes. It always supplies the input as the first argument. This can be overridden with _, although this works imperfectly and not all functions will accept it.

Code

data_demographics_raw |>
  janitor::clean_names(dat = _)

# A tibble: 200 × 17
   date       time       group subject session build blocknum trialnum blockcode
   <date>     <time>     <dbl>   <dbl>   <dbl> <chr>    <dbl>    <dbl> <chr>    
 1 2022-06-23 10:46:30  8.66e8  5.49e8       1 6.6.0        1        2 demograp…
 2 2022-06-23 10:46:30  8.66e8  5.49e8       1 6.6.0        1        3 demograp…
 3 2022-06-23 11:54:55  6.31e8  5.05e8       1 6.6.0        1        2 demograp…
 4 2022-06-23 11:54:55  6.31e8  5.05e8       1 6.6.0        1        3 demograp…
 5 2022-06-23 12:23:32  5.69e8  9.95e8       1 6.6.0        1        2 demograp…
 6 2022-06-23 12:23:32  5.69e8  9.95e8       1 6.6.0        1        3 demograp…
 7 2022-06-23 12:27:58  3.19e8  2.47e8       1 6.6.0        1        2 demograp…
 8 2022-06-23 12:27:58  3.19e8  2.47e8       1 6.6.0        1        3 demograp…
 9 2022-06-23 12:32:30  3.19e8  2.47e8       1 6.6.0        1        2 demograp…
10 2022-06-23 12:32:30  3.19e8  2.47e8       1 6.6.0        1        3 demograp…
# ℹ 190 more rows
# ℹ 8 more variables: trialcode <chr>, pretrialpause <dbl>,
#   posttrialpause <dbl>, trialduration <dbl>, trialtimeout <dbl>,
#   response <chr>, correct <dbl>, latency <dbl>
…
